<?xml version="1.0" standalone="no"?>
<!DOCTYPE svg PUBLIC "-//W3C//DTD SVG 20010904//EN"
 "http://www.w3.org/TR/2001/REC-SVG-20010904/DTD/svg10.dtd">
<svg version="1.0" xmlns="http://www.w3.org/2000/svg"
 width="16.000000pt" height="16.000000pt" viewBox="0 0 16.000000 16.000000"
 preserveAspectRatio="xMidYMid meet">
<metadata>
Created by potrace 1.11, written by Peter Selinger 2001-2013
</metadata>
<g transform="translate(0.000000,16.000000) scale(0.006400,-0.006400)"
fill="#000000" stroke="none">
<path d="M1096 2278 c3 -5 10 -6 15 -3 13 9 11 12 -6 12 -8 0 -12 -4 -9 -9z"/>
<path d="M1190 2261 c0 -6 4 -12 8 -15 5 -3 9 1 9 9 0 8 -4 15 -9 15 -4 0 -8
-4 -8 -9z"/>
<path d="M1280 2260 c-9 -6 -10 -10 -3 -10 6 0 15 5 18 10 8 12 4 12 -15 0z"/>
<path d="M1356 2253 c-6 -14 -5 -15 5 -6 7 7 10 15 7 18 -3 3 -9 -2 -12 -12z"/>
<path d="M1386 2262 c-3 -5 1 -9 9 -9 8 0 15 4 15 9 0 4 -4 8 -9 8 -6 0 -12
-4 -15 -8z"/>
<path d="M1173 2220 c-2 -29 12 -32 33 -7 l19 22 -24 -20 c-21 -17 -23 -18
-18 -3 3 10 3 19 -1 22 -4 3 -8 -4 -9 -14z"/>
<path d="M1377 2234 c-3 -3 -3 -13 0 -22 5 -10 3 -13 -6 -8 -8 5 -14 1 -18
-13 -6 -23 -23 -29 -23 -7 0 8 -7 17 -16 20 -14 5 -15 4 -5 -8 8 -10 9 -16 1
-21 -5 -3 -10 -2 -10 2 0 5 -13 9 -30 9 -20 1 -27 -2 -23 -10 4 -7 1 -6 -9 1
-8 7 -17 12 -19 10 -2 -1 2 4 10 11 9 7 10 12 3 12 -6 0 -17 -8 -24 -17 -8
-11 -29 -19 -53 -20 -29 -2 -36 0 -25 7 9 6 11 10 3 10 -7 0 -17 -9 -23 -20
-6 -10 -17 -17 -24 -14 -8 3 -17 0 -21 -5 -3 -6 -10 -9 -15 -6 -5 3 -20 -1
-32 -8 -13 -8 -31 -13 -40 -12 -10 2 -16 -2 -15 -7 1 -6 -4 -13 -11 -15 -8 -3
-10 1 -6 11 3 9 3 16 0 16 -4 0 -11 -11 -16 -25 -5 -14 -15 -24 -22 -23 -7 2
-12 -4 -10 -12 2 -8 0 -12 -4 -7 -4 4 -25 -9 -45 -29 l-38 -37 -10 26 c-6 15
-13 27 -16 27 -2 0 0 -12 5 -26 13 -34 13 -39 -4 -25 -12 10 -13 8 -9 -8 3
-13 1 -21 -6 -21 -7 0 -9 -5 -5 -12 4 -6 3 -8 -4 -4 -5 3 -13 0 -16 -6 -5 -11
-7 -11 -12 0 -3 6 -10 10 -15 6 -13 -8 -11 -24 2 -22 6 2 14 -3 17 -11 3 -8 0
-11 -7 -7 -6 4 -11 2 -11 -3 0 -6 -5 -11 -11 -11 -5 0 -8 4 -5 8 3 5 -4 16
-15 25 -10 9 -19 12 -19 7 0 -6 7 -13 15 -16 8 -4 13 -10 10 -14 -3 -5 -1 -11
4 -15 11 -6 3 -35 -10 -35 -4 0 -6 8 -2 18 3 11 0 9 -12 -6 -11 -15 -14 -27
-7 -35 10 -13 -20 -72 -31 -60 -13 12 -7 -13 6 -26 7 -8 7 -11 1 -8 -12 7 -23
-28 -27 -85 -1 -16 -6 -28 -10 -28 -5 0 -6 -4 -3 -9 3 -5 -4 -11 -15 -14 -14
-4 -18 -10 -13 -18 5 -9 2 -10 -10 -6 -10 4 -15 3 -11 -3 3 -6 1 -10 -6 -10
-7 0 -10 -3 -7 -6 4 -3 15 -1 25 4 20 10 46 5 38 -8 -3 -5 -13 -6 -23 -3 -14
5 -13 2 3 -11 11 -10 13 -14 5 -10 -11 5 -10 2 3 -13 16 -18 16 -22 2 -33 -9
-7 -15 -8 -15 -2 0 6 5 13 10 15 6 3 5 4 -2 3 -19 -4 -16 -31 2 -29 10 2 16
-5 16 -16 0 -11 -4 -17 -8 -15 -4 3 -8 1 -8 -4 0 -6 6 -12 14 -15 8 -3 13 -14
11 -24 -2 -10 -4 -21 -4 -25 -1 -3 -7 -8 -13 -11 -7 -2 -4 -3 7 -1 16 3 21 -2
22 -19 0 -31 6 -51 18 -60 6 -5 -1 -5 -14 -2 -16 5 -21 4 -17 -4 4 -6 16 -11
27 -11 10 0 19 -5 19 -11 0 -5 -5 -7 -11 -3 -7 4 -7 -2 1 -17 16 -31 25 -39
17 -16 -4 11 -3 16 4 12 5 -4 7 -16 3 -27 -4 -13 -2 -18 4 -14 5 3 17 -5 26
-19 9 -14 13 -25 9 -25 -5 0 0 -5 10 -11 9 -6 15 -14 12 -20 -4 -5 -1 -9 4 -9
6 0 11 -5 11 -11 0 -8 -6 -7 -17 2 -9 8 -19 13 -22 11 -3 -2 -7 1 -9 7 -2 7 4
9 15 5 14 -5 15 -4 3 4 -8 6 -18 8 -22 6 -4 -3 -8 -1 -8 5 0 5 5 11 12 13 9 3
9 6 0 12 -7 4 -12 2 -12 -4 0 -6 -5 -8 -11 -4 -7 4 -7 -2 1 -17 11 -19 10 -24
-6 -36 -16 -12 -16 -13 -1 -13 22 0 22 -16 0 -29 -10 -6 -13 -11 -7 -11 19 0
35 26 27 46 -6 16 -5 17 9 6 17 -13 13 -52 -4 -52 -6 0 -5 -7 2 -15 15 -18 0
-20 -20 -2 -12 10 -12 9 -1 -6 9 -11 21 -15 32 -12 11 4 19 2 19 -4 0 -6 -4
-11 -10 -11 -5 0 -10 -9 -10 -21 0 -13 -4 -18 -12 -13 -7 5 -8 3 -2 -7 13 -22
14 -43 1 -51 -9 -6 -9 -8 1 -8 6 0 12 -12 12 -26 0 -14 4 -23 8 -20 5 3 15 -6
22 -19 7 -14 19 -25 26 -25 7 0 18 -8 23 -18 6 -10 11 -12 11 -4 0 7 5 10 10
7 6 -4 8 -10 5 -15 -6 -10 15 -8 33 4 7 4 16 5 19 2 3 -3 22 4 41 16 20 12 32
17 28 10 -5 -8 -2 -10 8 -6 8 3 13 11 10 18 -4 11 33 54 42 49 2 -2 5 0 6 5 1
4 16 18 33 32 16 14 32 27 35 30 3 3 16 6 30 7 14 1 19 -1 12 -4 -6 -3 -9 -10
-5 -16 3 -6 7 -22 8 -36 1 -15 7 -25 14 -23 7 1 10 -2 7 -7 -4 -5 -1 -13 5
-16 5 -4 8 -13 5 -20 -3 -10 2 -12 17 -10 20 4 20 3 5 -8 -17 -14 -6 -16 89
-19 20 0 30 -5 27 -12 -3 -6 2 -2 11 9 16 20 16 20 36 -5 20 -24 20 -24 9 -2
-6 13 -9 26 -6 30 3 3 6 1 6 -4 0 -4 7 2 16 14 9 14 22 21 32 18 29 -9 42 6
25 29 -15 20 -15 20 -8 -2 3 -13 2 -23 -3 -23 -5 0 -12 11 -14 25 -3 14 -1 23
6 22 6 -1 10 6 10 15 -1 10 1 17 5 16 18 -2 24 3 13 11 -10 6 -10 10 2 20 11
9 16 9 22 0 5 -8 3 -9 -6 -4 -8 5 -11 3 -9 -4 3 -7 7 -11 11 -9 3 2 16 -6 28
-17 12 -11 25 -19 29 -17 3 1 6 -1 6 -5 0 -13 38 -52 45 -48 4 2 7 -2 7 -10 0
-8 -5 -15 -10 -15 -6 0 -7 -3 -4 -6 4 -4 14 -1 24 7 10 8 14 9 10 2 -5 -8 6
-16 35 -24 50 -14 98 -18 98 -7 0 4 9 5 19 3 15 -3 18 0 14 13 -6 15 -5 15 10
3 15 -12 17 -12 11 3 -6 14 5 21 28 17 4 0 5 6 2 14 -4 8 1 26 10 39 12 18 12
26 3 29 -9 4 -9 6 1 6 6 1 12 9 12 19 0 14 -2 15 -10 2 -7 -12 -9 -10 -7 7 0
12 5 19 9 17 4 -3 5 2 2 10 -3 9 -11 13 -17 9 -5 -3 -7 -2 -4 4 4 6 -10 29
-29 52 -20 22 -33 42 -30 42 3 1 11 2 18 3 7 0 15 12 19 26 4 14 7 20 8 13 1
-7 9 -10 19 -7 14 5 14 3 -3 -13 -19 -16 -19 -19 -5 -34 15 -14 18 -14 30 0
13 13 15 12 21 -10 6 -19 7 -20 8 -4 0 11 -6 29 -14 39 -19 25 -19 37 0 30 8
-4 15 -1 15 6 0 6 -5 8 -11 4 -7 -4 -10 -2 -8 5 3 7 8 12 13 11 14 -3 27 26
20 44 -5 14 -9 14 -22 4 -14 -11 -15 -10 -8 7 4 11 9 25 10 32 1 7 6 16 11 20
4 4 5 3 2 -3 -4 -7 0 -14 8 -18 9 -3 12 -12 9 -23 -5 -13 -1 -11 10 5 10 12
22 19 28 16 7 -4 8 -2 4 5 -6 9 -11 9 -22 0 -11 -9 -16 -6 -24 17 -8 20 -8 29
1 35 6 4 8 12 5 18 -4 6 -3 11 3 11 6 0 15 10 21 23 11 21 10 21 -4 3 -9 -11
-16 -15 -16 -9 0 7 4 14 10 18 5 3 7 12 3 20 -3 8 0 15 5 15 6 0 9 9 7 20 -2
11 0 21 6 21 5 1 15 2 22 3 17 2 15 49 -3 53 -9 3 -11 1 -5 -4 16 -13 17 -40
1 -40 -9 0 -13 11 -13 33 1 19 6 30 12 28 5 -3 1 2 -9 10 -11 9 -15 16 -10 16
9 0 11 52 4 70 -6 15 4 47 18 58 14 11 14 12 0 12 -9 0 -18 -6 -21 -12 -2 -7
-8 -10 -12 -6 -4 4 -2 14 5 23 7 8 8 15 4 15 -8 0 -22 32 -35 80 -2 8 -10 21
-17 28 -7 8 -10 17 -7 22 3 5 -1 11 -7 14 -7 3 -4 4 7 3 22 -2 29 25 7 29 -7
1 -8 0 -2 -3 18 -9 10 -21 -11 -16 -11 3 -18 11 -15 19 3 7 0 16 -6 20 -7 5
-8 2 -3 -6 5 -9 4 -11 -4 -6 -15 10 -3 29 15 22 7 -3 16 -1 19 4 3 5 -8 7 -25
5 -22 -3 -30 0 -30 11 0 8 -4 12 -10 9 -5 -3 -10 1 -10 9 0 9 5 16 10 16 6 0
10 5 10 11 0 8 -6 7 -17 -2 -13 -11 -17 -11 -20 -1 -3 6 -10 9 -16 5 -7 -4 -6
0 1 10 18 21 6 43 -14 26 -9 -7 -14 -8 -14 -1 0 6 5 14 10 17 6 3 10 11 10 18
0 6 -6 2 -14 -9 -8 -11 -18 -15 -23 -10 -4 5 -2 11 5 13 6 3 12 10 12 16 0 8
-4 7 -12 -1 -19 -19 -28 -14 -29 16 -2 23 -2 24 -6 4 -4 -19 -6 -20 -19 -8 -7
8 -19 17 -26 20 -10 5 -10 7 0 12 6 3 12 10 12 16 0 7 -5 7 -13 -1 -8 -6 -18
-7 -22 -3 -5 4 -5 1 0 -7 6 -10 4 -12 -4 -7 -7 5 -10 14 -8 20 3 7 -1 13 -9
13 -7 0 -10 -5 -7 -11 4 -6 -1 -5 -10 3 -9 7 -17 10 -17 7 0 -4 -7 0 -16 9 -9
8 -14 22 -11 30 4 9 0 12 -15 10 -16 -4 -19 0 -16 19 3 13 0 23 -7 23 -9 0
-10 -9 -5 -26 4 -14 12 -25 19 -23 6 1 11 -5 11 -13 0 -12 -4 -13 -19 -6 -10
6 -21 7 -25 3 -4 -3 -4 2 0 12 6 16 4 17 -14 7 -14 -7 -23 -8 -27 -1 -4 6 -12
10 -18 9 -26 -3 -37 2 -37 16 0 8 5 14 12 13 7 -2 13 7 14 20 1 24 1 25 -9 16z
m-73 -347 c3 3 6 2 6 -4 0 -5 13 -9 29 -9 41 0 92 -24 89 -42 -2 -8 4 -17 12
-19 12 -4 12 -3 1 5 -9 7 -10 12 -2 16 6 4 11 2 11 -4 0 -6 4 -9 8 -6 12 7 64
-43 56 -55 -3 -6 3 -13 15 -16 11 -3 18 -9 15 -14 -3 -5 5 -13 18 -18 18 -8
19 -10 5 -10 -10 -1 -15 -6 -12 -11 4 -6 10 -8 15 -5 5 3 14 -3 20 -14 8 -17
8 -19 -4 -15 -9 4 -14 0 -12 -10 3 -19 16 -34 16 -18 0 7 4 12 9 12 6 0 8 -9
6 -20 -2 -11 3 -24 13 -30 12 -6 13 -9 3 -10 -10 0 -11 -3 -2 -14 8 -10 9 -16
1 -21 -5 -3 -10 -11 -10 -16 0 -6 6 -7 13 -3 9 6 9 5 0 -8 -7 -8 -10 -18 -6
-22 4 -3 -2 -13 -13 -22 -18 -15 -18 -15 3 -11 19 4 21 2 13 -13 -5 -9 -6 -21
-2 -25 4 -4 -3 -2 -16 4 -12 7 -20 16 -17 21 3 5 -4 8 -15 7 -11 -1 -20 -7
-20 -15 0 -7 3 -11 8 -8 4 2 16 -2 27 -10 10 -8 15 -14 9 -14 -5 0 -2 -5 6
-10 9 -6 10 -10 3 -10 -7 0 -17 8 -22 18 -13 22 -14 7 -1 -18 12 -22 3 -53
-13 -43 -6 4 -8 0 -4 -10 3 -10 2 -17 -4 -17 -6 0 -9 10 -7 22 2 11 -3 23 -10
25 -7 3 -10 -1 -6 -10 3 -8 1 -18 -5 -22 -6 -3 -9 0 -5 8 3 8 -2 14 -11 14 -8
0 -15 -3 -15 -6 1 -13 20 -36 31 -36 7 0 13 -6 15 -13 1 -7 0 -8 -2 -3 -3 6
-11 8 -19 5 -7 -3 -16 3 -19 14 -4 11 -14 26 -23 34 -15 11 -16 11 -10 -5 4
-11 3 -16 -3 -12 -6 3 -10 1 -10 -4 0 -6 -6 -11 -13 -11 -8 0 -22 -8 -31 -19
-15 -17 -15 -19 -1 -25 9 -3 14 -10 11 -15 -4 -5 -1 -12 4 -14 7 -4 6 -5 0 -3
-7 1 -11 6 -11 11 0 6 -7 14 -15 18 -11 6 -12 12 -5 21 6 7 9 22 7 33 -3 12 2
29 9 40 22 28 18 38 -7 17 -13 -12 -18 -13 -13 -4 15 24 16 50 2 50 -9 0 -8 3
2 9 9 6 10 11 3 15 -6 4 -8 14 -5 23 5 12 3 14 -7 8 -8 -5 -11 -4 -6 3 3 5 1
12 -5 14 -6 2 -11 16 -11 32 0 18 -4 24 -11 17 -14 -14 -58 16 -50 35 3 8 0
14 -6 14 -6 0 -10 -5 -8 -11 2 -13 -48 -17 -76 -6 -9 3 -16 3 -14 -1 1 -4 -2
-7 -8 -7 -5 0 -9 4 -7 8 1 5 -2 6 -8 2 -6 -3 -8 -10 -5 -15 7 -11 -24 -42 -35
-35 -4 3 -6 -4 -3 -15 3 -12 0 -22 -9 -25 -11 -4 -14 -20 -13 -53 1 -26 -1
-51 -4 -57 -9 -17 -7 -50 4 -57 6 -5 6 -8 -2 -8 -6 0 -15 5 -18 10 -9 15 -25
12 -25 -5 0 -8 -5 -15 -10 -15 -7 0 -7 7 0 21 7 12 18 18 26 15 8 -3 14 1 14
9 0 9 -6 12 -15 9 -8 -4 -15 -1 -15 7 0 7 -3 9 -7 5 -8 -7 -9 -11 -12 -37 0
-6 -8 -9 -16 -6 -8 4 -17 2 -20 -3 -4 -6 -1 -10 4 -10 6 0 11 -5 11 -11 0 -8
-6 -7 -16 2 -15 12 -16 11 -10 -11 6 -21 5 -22 -4 -7 -8 13 -9 22 -1 31 21 25
-32 46 -55 23 -7 -7 10 -11 35 -8 7 2 10 -3 6 -9 -8 -12 -37 -10 -47 5 -7 10
10 37 21 31 3 -2 12 2 19 10 11 12 10 13 -7 11 -10 -2 -27 -9 -38 -17 -17 -14
-17 -13 1 8 20 23 9 31 -12 10 -9 -9 -12 -9 -12 0 0 7 5 12 10 12 6 0 10 4 10
10 0 5 -8 7 -17 4 -15 -5 -15 -4 -3 4 8 6 18 8 22 6 4 -3 8 -1 8 5 0 15 -18
23 -25 11 -4 -6 -11 -8 -16 -4 -6 4 -6 11 2 20 9 11 9 14 -1 14 -8 0 -10 3 -7
7 4 3 2 12 -4 19 -7 8 -7 14 1 19 5 3 10 11 10 16 0 6 -6 7 -12 3 -10 -6 -10
-5 -1 8 7 8 10 18 7 21 -3 3 -2 12 2 19 5 7 9 21 10 31 1 9 3 19 4 22 1 3 3
10 4 16 0 6 10 17 20 25 11 8 17 14 13 14 -4 0 -3 9 3 20 6 11 16 17 22 14 8
-5 9 -1 5 10 -4 10 -3 15 3 11 6 -3 10 1 10 9 0 15 74 81 91 81 6 0 14 7 19
15 6 8 10 10 10 3 0 -15 29 -10 40 6 5 9 10 10 14 2 4 -6 1 -11 -6 -11 -9 0
-9 -3 2 -10 8 -5 13 -10 10 -11 -3 0 -13 -2 -22 -4 -10 -2 -18 1 -18 6 0 6 -5
7 -11 3 -8 -4 -7 -9 2 -15 11 -7 11 -9 -1 -9 -9 0 -11 -3 -4 -8 6 -4 4 -13 -8
-24 -10 -10 -18 -14 -18 -10 0 5 -7 9 -15 9 -8 0 -11 -5 -8 -10 4 -6 0 -7 -8
-3 -8 4 -5 -1 6 -11 21 -19 30 -43 17 -43 -19 1 -34 24 -35 58 0 6 -5 12 -10
12 -5 0 -6 -7 -3 -16 4 -10 2 -13 -7 -9 -6 4 -3 -1 7 -9 11 -9 15 -16 10 -16
-17 0 -33 22 -27 39 4 14 3 14 -6 1 -9 -12 -5 -20 17 -39 17 -16 20 -22 9 -18
-12 5 -16 3 -11 -5 4 -7 3 -8 -4 -4 -8 5 -10 1 -6 -11 4 -14 3 -15 -4 -4 -7 9
-12 10 -16 2 -4 -6 -1 -11 6 -11 10 0 10 -2 0 -9 -8 -4 -14 -12 -14 -16 0 -4
6 -12 14 -17 9 -6 8 -8 -7 -6 -11 2 -19 -2 -18 -9 2 -7 -4 -10 -15 -7 -9 3 -6
-2 8 -10 14 -8 22 -16 18 -17 -25 -5 -34 -3 -44 9 -8 12 -12 11 -24 -3 -12
-15 -12 -16 5 -13 11 2 20 -3 20 -10 0 -8 11 -20 25 -28 l25 -15 -25 6 c-19 5
-22 4 -10 -4 13 -10 13 -11 0 -11 -13 0 -13 -1 0 -10 13 -8 12 -10 -2 -10 -10
0 -18 -4 -18 -10 0 -5 8 -7 18 -4 15 5 15 4 2 -6 -13 -10 -12 -11 3 -6 12 4
16 2 11 -6 -5 -7 -3 -8 7 -3 12 8 12 6 0 -8 -9 -11 -10 -17 -2 -17 10 0 15 13
12 33 0 4 4 7 10 7 6 0 8 -7 5 -16 -4 -10 -2 -13 6 -8 7 5 8 3 3 -6 -6 -9 -4
-11 5 -5 8 5 11 4 6 -3 -4 -6 -14 -8 -22 -5 -14 5 -14 3 -3 -16 16 -25 25 -27
27 -6 1 8 3 22 4 30 2 17 14 20 23 6 3 -5 1 -12 -5 -16 -6 -4 -8 -11 -4 -16 3
-5 10 -7 15 -4 5 4 9 1 9 -5 0 -6 5 -8 11 -4 8 4 7 9 -2 16 -10 6 -7 7 9 3 13
-4 22 -2 22 5 0 6 -4 9 -8 6 -4 -2 -8 9 -7 25 0 19 6 31 17 35 10 3 18 9 18
15 0 5 -15 0 -32 -11 -18 -11 -36 -20 -39 -20 -4 0 -6 17 -5 38 1 25 -3 36
-11 35 -7 -2 -13 6 -13 17 0 23 15 27 23 6 3 -7 17 -13 32 -13 14 0 25 0 23 1
-2 1 -12 8 -22 16 -13 10 -17 10 -12 3 4 -7 3 -13 -2 -13 -6 0 -13 7 -16 16
-4 9 -13 13 -24 10 -13 -4 -18 -1 -18 14 0 24 0 24 32 4 20 -14 27 -15 37 -4
10 10 9 12 -5 7 -9 -3 -24 0 -33 7 -16 11 -16 13 1 27 16 12 17 12 11 -3 -3
-10 -2 -18 3 -18 6 0 10 6 10 14 0 8 10 22 21 30 23 16 53 11 42 -8 -3 -6 -2
-8 2 -3 14 12 16 45 3 53 -8 5 -9 2 -5 -10 5 -13 3 -17 -7 -13 -8 3 -26 -3
-40 -14 -27 -21 -30 -21 -20 5 3 9 12 16 20 16 8 0 12 10 11 27 -1 19 3 29 16
31 9 2 17 -2 17 -8 0 -6 -4 -9 -8 -6 -4 2 -9 -5 -9 -16 -2 -20 -1 -20 14 2 15
21 15 24 -2 36 -16 12 -17 14 -3 14 20 0 33 -19 30 -42 -2 -10 1 -18 7 -18 6
0 7 7 4 17 -4 11 -3 14 5 9 7 -4 12 -2 12 3 0 6 -5 11 -11 11 -8 0 -8 5 1 15
9 11 10 18 1 29 -9 10 -8 16 3 25 12 10 15 9 15 -8 1 -12 1 -31 2 -43 0 -22 1
-22 14 -5 7 11 11 26 7 35 -5 15 -4 16 13 2 47 -37 53 -44 48 -59 -4 -13 -3
-14 5 -1 6 8 9 17 6 21 -6 10 10 19 43 25 24 5 25 3 12 -13 -13 -16 -13 -16
11 0 32 22 43 22 28 -2 -7 -11 -15 -18 -19 -15 -4 2 -14 -2 -22 -10 -8 -8 -16
-13 -18 -11 -2 2 -5 -8 -6 -22 l-1 -25 17 29 c18 28 55 41 66 22 9 -14 -17
-79 -28 -72 -6 3 -7 1 -3 -6 10 -15 26 -4 26 17 1 15 2 15 14 -1 10 -12 15
-14 18 -6 5 15 38 5 38 -12 0 -8 -5 -7 -17 2 -11 10 -14 10 -9 2 4 -7 4 -13
-1 -14 -43 -4 -54 -7 -60 -14 -5 -4 0 -5 10 -2 11 4 24 4 30 0 7 -4 2 -10 -13
-15 l-25 -7 25 2 c14 1 24 8 23 14 -1 6 4 14 12 17 22 8 18 -11 -7 -36 -17
-17 -18 -20 -4 -15 14 6 16 3 11 -16 -5 -19 -4 -20 5 -4 6 9 9 21 6 25 -2 4 1
18 8 31 8 14 16 19 20 13 3 -6 2 -13 -4 -17 -5 -3 -10 -14 -9 -23 0 -14 2 -14
8 2 10 26 40 30 38 5 -1 -19 -12 -25 -20 -11 -2 4 -3 2 -1 -5 1 -6 -6 -13 -17
-16 -23 -6 -25 -23 -3 -31 21 -8 37 3 30 21 -5 11 -2 13 10 9 9 -4 23 -1 30 5
8 7 14 7 14 1 0 -15 -26 -33 -35 -24 -4 4 -3 -2 3 -13 6 -11 13 -29 17 -40 5
-16 8 -17 15 -5 5 8 7 23 4 33 -6 18 5 22 22 10 5 -5 2 -1 -7 8 -16 14 -16 16
0 28 9 6 10 9 2 5 -9 -5 -12 -3 -7 4 4 7 -1 10 -14 7 -11 -2 -18 0 -15 5 3 6
-2 7 -12 4 -16 -5 -16 -4 -1 5 20 14 18 37 -7 55 -16 12 -17 16 -6 30 7 9 18
13 24 9 6 -4 7 -1 3 6 -6 9 -13 8 -29 -6 -21 -18 -21 -18 -7 1 12 16 12 18 1
11 -10 -6 -12 -4 -6 5 6 9 4 11 -5 5 -9 -6 -11 -4 -5 5 6 9 4 11 -6 5 -8 -5
-5 2 6 16 15 18 16 20 3 10 -16 -12 -22 -9 -20 10 1 3 -4 6 -11 6 -7 0 -20 4
-31 8 -16 7 -17 5 -11 -15 6 -20 5 -21 -8 -9 -13 12 -12 17 1 38 16 24 16 24
-7 12 -12 -7 -25 -10 -29 -7 -3 3 -1 6 5 6 5 0 10 6 10 13 0 9 -12 13 -34 12
-19 -1 -36 2 -39 7 -3 5 -12 4 -20 -3 -8 -6 -18 -9 -21 -5 -4 4 -1 11 7 16 11
7 11 10 2 10 -7 0 -15 -7 -18 -15 -6 -14 -8 -13 -19 1 -11 16 -13 16 -23 -2
-8 -14 -12 -15 -12 -4 0 12 -2 13 -9 1 -7 -11 -11 -9 -20 8 -8 14 -8 21 -1 21
5 0 10 -4 10 -8 0 -5 7 -9 15 -9 8 0 15 4 15 9 0 4 7 8 15 8 8 0 15 -5 15 -11
0 -5 5 -7 10 -4 6 4 7 11 4 17 -4 6 0 6 13 -1 11 -6 23 -7 27 -4z m-60 -33 c4
-10 2 -13 -6 -8 -7 4 -8 3 -4 -5 6 -9 11 -9 24 1 13 11 15 10 9 -4 -3 -10 -1
-20 5 -24 6 -4 8 -3 5 3 -4 6 2 18 12 27 11 10 22 13 25 8 3 -5 17 -8 31 -7
14 2 25 -1 25 -7 0 -6 -7 -7 -15 -4 -9 3 -18 0 -21 -8 -8 -22 -35 -15 -28 7 4
13 2 17 -5 13 -6 -4 -11 -16 -11 -26 0 -29 -12 -30 -43 -6 -19 15 -26 28 -21
39 8 21 10 21 18 1z m-559 -4 c3 -5 1 -10 -4 -10 -6 0 -11 5 -11 10 0 6 2 10
4 10 3 0 8 -4 11 -10z m516 -23 c-10 -9 -11 -8 -5 6 3 10 9 15 12 12 3 -3 0
-11 -7 -18z m-38 -38 c-8 -8 -14 -6 -22 9 -13 25 -2 37 18 17 11 -11 12 -18 4
-26z m202 23 c-3 -3 -11 0 -18 7 -9 10 -8 11 6 5 10 -3 15 -9 12 -12z m95 -44
c-3 -3 2 -13 10 -22 8 -10 15 -25 17 -34 1 -10 10 -24 20 -32 10 -9 19 -22 21
-30 1 -10 -3 -8 -13 4 -11 15 -15 16 -15 5 -1 -8 -10 -3 -24 15 -13 16 -23 39
-21 51 1 18 -2 22 -14 18 -11 -4 -10 -1 4 11 20 17 20 17 -3 6 -12 -6 -20 -15
-17 -20 3 -4 2 -10 -2 -13 -5 -2 -3 -2 4 -1 7 2 15 -1 18 -6 5 -9 -5 -12 -32
-9 -5 0 -7 10 -5 21 1 12 -6 31 -15 42 -18 21 -18 21 4 3 22 -19 41 -8 27 16
-5 7 2 5 16 -4 14 -9 23 -19 20 -21z m-395 -56 c-5 -4 -11 -14 -13 -22 -8 -35
-47 -57 -40 -22 2 9 8 17 15 17 6 0 15 4 20 9 5 5 3 6 -4 2 -7 -4 -13 -3 -13
3 0 9 16 19 35 20 7 0 7 -2 0 -7z m-55 -93 c0 -14 -17 -10 -23 5 -4 10 -1 13
9 9 7 -3 14 -9 14 -14z m-405 -29 c3 -5 2 -10 -4 -10 -5 0 -13 5 -16 10 -3 6
-2 10 4 10 5 0 13 -4 16 -10z m410 0 c4 -6 1 -17 -5 -25 -7 -8 -9 -15 -5 -15
4 0 2 -7 -5 -15 -7 -8 -9 -16 -4 -16 5 -1 14 -2 19 -4 6 -1 16 -3 23 -3 6 -1
11 -8 10 -14 -2 -8 6 -12 19 -11 28 3 27 -30 -2 -47 -17 -12 -18 -11 -7 2 10
12 9 18 -2 28 -9 6 -20 9 -25 5 -6 -3 -8 0 -5 8 4 10 -2 14 -22 13 -29 -1 -43
28 -18 38 7 3 11 12 8 21 -3 8 -9 13 -13 11 -4 -3 -13 -1 -20 3 -9 6 -10 11
-2 15 6 4 11 1 11 -6 0 -8 5 -6 11 5 11 19 25 22 34 7z m475 -10 c0 -5 -4 -10
-9 -10 -6 0 -13 5 -16 10 -3 6 1 10 9 10 9 0 16 -4 16 -10z m-442 -39 c-2 -8
-13 -15 -25 -16 -16 -1 -20 2 -13 10 5 7 7 15 4 18 -4 3 3 5 15 4 13 -1 21 -7
19 -16z m59 -236 c0 -8 -4 -12 -9 -9 -4 3 -8 1 -8 -4 0 -20 -30 -21 -40 -2 -7
14 -7 20 0 20 5 0 10 -7 10 -16 0 -8 5 -12 10 -9 6 4 7 11 4 17 -5 7 -2 8 6 3
10 -6 12 -4 7 8 -4 10 -2 14 7 11 7 -3 13 -11 13 -19z m387 9 c8 -21 8 -24 -5
-24 -5 0 -8 4 -4 9 3 5 1 12 -5 16 -5 3 -11 1 -11 -4 -1 -6 -2 -16 -3 -23 0
-6 -8 -13 -16 -15 -13 -4 -13 -3 0 6 8 6 11 11 7 11 -11 0 11 40 22 40 5 0 12
-7 15 -16z m-513 -11 c13 -16 12 -17 -3 -4 -10 7 -18 15 -18 17 0 8 8 3 21
-13z m462 2 c-3 -9 -8 -14 -10 -11 -3 3 -2 9 2 15 9 16 15 13 8 -4z m-422 -28
c-10 -9 -11 -8 -5 6 3 10 9 15 12 12 3 -3 0 -11 -7 -18z m509 9 c0 -3 -4 -8
-10 -11 -5 -3 -10 -1 -10 4 0 6 5 11 10 11 6 0 10 -2 10 -4z m-474 -34 c1 -7
0 -8 -3 -2 -2 5 -9 8 -14 4 -5 -3 -9 0 -9 6 0 15 23 7 26 -8z m44 8 c-8 -5
-19 -10 -25 -10 -5 0 -3 5 5 10 8 5 20 10 25 10 6 0 3 -5 -5 -10z m400 0 c0
-4 -12 -7 -26 -7 -14 0 -21 3 -15 7 7 3 18 7 26 7 8 0 15 -4 15 -7z m-60 -35
c-7 -9 -15 -13 -19 -10 -3 3 1 10 9 15 21 14 24 12 10 -5z m-337 -10 c4 -8 1
-17 -5 -21 -7 -4 -8 -3 -4 4 4 7 2 12 -4 12 -6 0 -8 5 -5 10 8 14 12 13 18 -5z
m757 -30 c0 -2 -11 -16 -25 -30 -27 -26 -45 -32 -45 -15 0 6 6 10 14 10 8 0
18 5 22 12 5 8 2 9 -11 4 -14 -5 -15 -4 -7 7 10 11 52 21 52 12z m-43 -107
c-18 -11 -29 2 -16 18 10 12 14 12 20 2 4 -7 3 -16 -4 -20z m-1062 8 c22 9 26
-25 4 -36 -11 -6 -17 -15 -14 -20 3 -4 -4 -6 -16 -3 -14 4 -18 10 -13 22 4 9
7 24 8 33 0 11 4 14 9 9 5 -5 15 -7 22 -5z m365 -100 c0 -2 -8 -10 -17 -17
-16 -13 -17 -12 -4 4 13 16 21 21 21 13z m291 -29 c-10 -9 -11 -8 -5 6 3 10 9
15 12 12 3 -3 0 -11 -7 -18z"/>
<path d="M1095 1840 c-4 -6 -9 -8 -13 -6 -4 2 -19 -6 -34 -18 l-28 -21 42 0
c39 0 42 3 43 28 2 29 0 33 -10 17z m2 -25 c0 -6 -11 -11 -23 -11 -16 0 -20 3
-14 11 5 7 16 12 23 12 8 0 14 -5 14 -12z"/>
<path d="M1455 1810 c-4 -6 -1 -9 7 -8 7 2 12 -3 10 -10 -1 -8 2 -11 8 -7 8 5
7 11 -1 21 -14 17 -16 17 -24 4z"/>
<path d="M1222 1780 c-10 -16 -9 -21 9 -31 11 -6 23 -8 26 -6 2 3 -5 8 -16 12
-12 3 -19 10 -16 15 3 5 13 7 23 4 10 -4 13 -2 7 3 -5 4 -12 11 -15 15 -3 4
-11 -2 -18 -12z"/>
<path d="M1300 1780 c0 -5 5 -10 10 -10 6 0 10 5 10 10 0 6 -4 10 -10 10 -5 0
-10 -4 -10 -10z"/>
<path d="M1496 1771 c-3 -5 2 -15 12 -22 15 -12 16 -12 5 2 -7 9 -10 19 -6 22
3 4 4 7 0 7 -3 0 -8 -4 -11 -9z"/>
<path d="M1190 1751 c0 -5 5 -13 10 -16 6 -3 10 -2 10 4 0 5 -4 13 -10 16 -5
3 -10 2 -10 -4z"/>
<path d="M1292 1740 c0 -14 2 -19 5 -12 2 6 2 18 0 25 -3 6 -5 1 -5 -13z"/>
<path d="M986 1734 c-3 -8 -11 -12 -17 -8 -8 4 -9 3 -5 -4 4 -7 2 -12 -5 -12
-7 0 -4 -7 7 -15 16 -13 16 -14 2 -9 -10 3 -18 1 -18 -5 0 -6 -5 -10 -12 -8
-7 1 -13 -4 -14 -10 -1 -7 -2 -14 -4 -15 -1 -2 -3 -11 -5 -20 -3 -15 2 -14 33
6 23 14 37 31 37 44 0 11 8 29 18 39 9 11 14 23 10 26 -11 11 -20 8 -27 -9z
m24 3 c0 -2 -10 -12 -22 -23 l-23 -19 19 23 c18 21 26 27 26 19z m-39 -71 c-1
-3 -3 -5 -5 -3 -2 1 -14 -7 -27 -18 -13 -11 -18 -13 -11 -4 6 9 8 20 4 24 -4
5 -2 5 5 1 6 -3 15 -1 18 5 7 10 18 7 16 -5z"/>
<path d="M1370 1740 c0 -5 -6 -10 -14 -10 -8 0 -17 -4 -21 -9 -3 -6 3 -9 14
-8 19 1 50 37 31 37 -5 0 -10 -4 -10 -10z"/>
<path d="M1177 1723 c-12 -11 -8 -20 18 -37 25 -16 25 -16 13 3 -6 11 -16 17
-22 14 -5 -4 -7 1 -3 10 7 18 5 21 -6 10z"/>
<path d="M1214 1719 c-4 -7 -3 -9 4 -5 6 3 13 -2 15 -11 4 -16 5 -16 6 -1 1
21 -15 32 -25 17z"/>
<path d="M1514 1708 c-4 -5 2 -15 12 -23 11 -7 19 -24 19 -37 0 -13 5 -23 10
-23 22 0 36 -17 25 -30 -7 -9 -6 -16 5 -25 8 -7 12 -16 9 -22 -3 -5 -11 -5
-19 2 -9 8 -12 5 -10 -14 2 -14 -3 -27 -10 -30 -12 -4 -43 20 -44 37 -1 4 -3
7 -6 7 -3 0 -10 0 -16 0 -6 0 -8 -9 -3 -22 6 -20 5 -21 -9 -9 -9 7 -15 17 -12
21 2 4 -7 12 -20 18 -30 14 -45 -3 -22 -25 14 -14 13 -18 -4 -36 -13 -14 -16
-23 -8 -28 7 -4 8 -12 4 -19 -5 -8 -4 -11 2 -7 6 4 17 -1 24 -10 12 -15 12
-16 -3 -10 -10 3 -20 2 -23 -4 -4 -5 -3 -9 2 -8 4 1 14 1 22 0 12 -1 12 -4 -1
-18 -9 -10 -13 -24 -10 -32 2 -8 0 -11 -5 -8 -5 3 -10 0 -10 -8 0 -21 14 -18
39 7 13 13 29 22 35 20 22 -5 14 14 -12 28 -13 7 -22 17 -18 23 3 5 9 4 13 -3
5 -9 9 -9 14 -1 4 6 2 11 -3 11 -6 0 -3 8 7 18 16 17 37 9 26 -10 -3 -4 -1 -8
4 -8 5 0 14 12 20 26 7 14 16 23 21 20 5 -3 20 3 32 14 17 14 20 19 9 20 -13
0 -13 1 0 10 12 8 12 10 1 10 -11 0 -10 4 3 19 12 13 14 21 6 26 -5 3 -8 10
-5 15 3 5 1 11 -5 15 -6 4 -7 11 -4 17 4 6 2 8 -4 4 -21 -13 -35 30 -18 53 8
11 8 13 0 8 -12 -7 -38 16 -29 25 3 2 -2 5 -10 5 -9 0 -18 -4 -21 -9z m31 -18
c10 -11 16 -20 13 -20 -3 0 -13 9 -23 20 -10 11 -16 20 -13 20 3 0 13 -9 23
-20z m52 -97 c-4 -3 -1 -13 6 -22 11 -14 10 -14 -5 -2 -16 12 -16 31 -1 31 4
0 3 -3 0 -7z m-147 -53 c0 -5 7 -16 16 -24 18 -18 38 -11 30 10 -3 7 0 16 6
20 7 4 8 3 4 -4 -7 -12 27 -47 47 -47 7 -1 15 4 19 9 4 6 10 7 15 3 8 -9 -17
-28 -28 -21 -4 2 -14 -4 -21 -15 -14 -19 -14 -19 -27 1 -7 11 -8 17 -2 14 7
-5 8 -1 5 9 -9 23 -16 12 -23 -35 -1 -3 -10 -11 -21 -18 -17 -10 -22 -9 -36
13 -15 24 -15 27 0 44 15 16 15 19 1 31 -19 16 -19 31 0 24 8 -4 15 -10 15
-14z m9 -166 c-6 -7 -15 -11 -21 -8 -5 3 -4 12 3 20 6 7 15 11 21 8 5 -3 4
-12 -3 -20z"/>
<path d="M1456 1493 c4 -16 1 -22 -8 -20 -7 2 -10 2 -5 0 4 -3 5 -9 2 -13 -12
-20 14 -18 31 2 11 12 13 18 5 13 -11 -6 -13 -4 -8 9 4 9 3 15 -2 11 -5 -3
-12 1 -15 7 -3 7 -3 3 0 -9z"/>
<path d="M1523 1485 c0 -8 4 -12 9 -9 5 3 6 10 3 15 -9 13 -12 11 -12 -6z"/>
<path d="M1317 1687 c-3 -8 1 -14 8 -14 7 0 11 6 8 14 -3 7 -6 13 -8 13 -2 0
-5 -6 -8 -13z"/>
<path d="M1240 1680 c-9 -6 -10 -10 -3 -10 6 0 15 5 18 10 8 12 4 12 -15 0z"/>
<path d="M1110 1671 c0 -6 4 -13 10 -16 6 -3 7 1 4 9 -7 18 -14 21 -14 7z"/>
<path d="M1086 1661 c-3 -5 1 -14 9 -21 10 -9 15 -9 15 -1 0 6 -5 11 -11 11
-5 0 -7 5 -4 10 3 6 4 10 1 10 -3 0 -7 -4 -10 -9z"/>
<path d="M1145 1660 c-3 -6 1 -7 9 -4 18 7 21 14 7 14 -6 0 -13 -4 -16 -10z"/>
<path d="M1200 1635 c-7 -8 -16 -13 -20 -10 -5 3 -11 2 -14 -3 -2 -4 6 -8 19
-8 14 0 22 2 20 5 -3 2 0 10 6 18 6 7 9 13 6 13 -2 0 -10 -7 -17 -15z"/>
<path d="M1319 1633 c-13 -16 -12 -17 4 -4 9 7 17 15 17 17 0 8 -8 3 -21 -13z"/>
<path d="M1335 1621 c-3 -5 -2 -12 3 -15 5 -3 9 1 9 9 0 17 -3 19 -12 6z"/>
<path d="M1095 1611 c-6 -11 13 -26 22 -17 4 3 1 6 -6 6 -7 0 -9 5 -6 10 3 6
4 10 1 10 -3 0 -7 -4 -11 -9z"/>
<path d="M1396 1585 c4 -8 8 -15 10 -15 2 0 4 7 4 15 0 8 -4 15 -10 15 -5 0
-7 -7 -4 -15z"/>
<path d="M906 1563 c2 -17 0 -35 -6 -38 -7 -4 -5 -14 5 -27 11 -17 12 -25 2
-37 -10 -14 -10 -14 4 -3 13 10 19 9 29 -3 7 -9 10 -18 7 -22 -9 -9 13 -34 24
-27 5 2 22 -2 39 -11 24 -12 35 -13 45 -5 10 8 15 8 20 0 5 -8 11 -8 21 1 7 6
11 15 8 21 -4 5 -11 5 -18 -1 -9 -7 -19 -5 -36 6 -13 9 -20 11 -16 5 14 -23
-18 -24 -36 -1 -11 13 -17 19 -15 14 3 -6 -4 -12 -16 -12 -17 -2 -19 0 -7 7
13 9 13 11 0 20 -12 7 -12 10 -1 10 8 0 4 7 -9 18 -19 15 -21 22 -12 38 9 15
7 21 -11 32 -12 7 -14 11 -5 8 12 -3 16 1 15 14 -1 14 -5 16 -13 9 -8 -7 -14
-6 -18 3 -3 7 -3 -1 0 -19z m19 -40 c-2 -10 -4 -19 -4 -21 -1 -2 -6 0 -11 3
-8 5 -7 11 1 21 15 18 18 18 14 -3z m16 -50 c13 -16 12 -17 -3 -4 -10 7 -18
15 -18 17 0 8 8 3 21 -13z"/>
<path d="M1320 1585 c0 -2 6 -8 13 -14 10 -8 14 -7 14 2 0 8 -6 14 -14 14 -7
0 -13 -1 -13 -2z"/>
<path d="M1120 1576 c0 -2 7 -7 16 -10 8 -3 12 -2 9 4 -6 10 -25 14 -25 6z"/>
<path d="M1080 1545 c9 -10 9 -15 1 -15 -6 0 -11 -5 -11 -10 0 -6 11 -3 25 6
14 9 25 21 25 28 0 6 -5 4 -11 -4 -8 -11 -12 -12 -16 -2 -2 6 -9 12 -15 12 -6
0 -6 -6 2 -15z"/>
<path d="M1384 1536 c1 -20 26 -36 26 -16 0 6 -4 9 -9 5 -5 -3 -11 3 -14 12
-3 15 -4 15 -3 -1z"/>
<path d="M1499 1445 c-1 -3 -2 -8 -3 -12 -1 -5 -4 -12 -8 -18 -4 -6 10 -10 36
-11 33 0 42 3 42 16 0 18 -12 20 -33 7 -16 -10 -36 1 -28 14 4 5 4 9 1 9 -3 0
-7 -2 -7 -5z"/>
<path d="M1507 1383 c4 -10 9 -11 19 -2 11 9 18 8 29 -1 9 -7 18 -10 22 -6 11
10 -3 17 -40 20 -27 2 -34 0 -30 -11z"/>
<path d="M990 1381 c0 -5 7 -14 15 -21 12 -10 15 -10 15 1 0 12 2 12 9 0 6 -9
11 -10 15 -2 6 10 -6 15 -26 12 -5 0 -8 4 -8 9 0 6 -4 10 -10 10 -5 0 -10 -4
-10 -9z"/>
<path d="M1470 1703 c0 -6 8 -17 18 -24 16 -13 16 -13 2 6 -8 11 -16 22 -17
24 -2 2 -3 0 -3 -6z"/>
<path d="M990 1579 c0 -5 5 -7 10 -4 6 3 10 8 10 11 0 2 -4 4 -10 4 -5 0 -10
-5 -10 -11z"/>
<path d="M733 1053 c0 -10 4 -10 16 -1 9 7 18 13 20 15 2 1 -5 1 -16 0 -11 0
-20 -7 -20 -14z"/>
<path d="M955 2220 c-3 -5 -1 -10 4 -10 6 0 11 5 11 10 0 6 -2 10 -4 10 -3 0
-8 -4 -11 -10z"/>
<path d="M990 2220 c0 -5 6 -9 13 -7 6 1 11 -4 9 -11 -1 -8 2 -11 8 -7 8 5 7
11 -1 21 -13 16 -29 18 -29 4z"/>
<path d="M1056 2214 c-3 -8 0 -16 7 -20 7 -4 9 -4 5 1 -4 4 0 13 8 20 15 11
15 12 1 12 -9 0 -18 -6 -21 -13z"/>
<path d="M1108 2218 c5 -5 16 -8 23 -6 8 3 3 7 -10 11 -17 4 -21 3 -13 -5z"/>
<path d="M1238 2223 c7 -3 16 -2 19 1 4 3 -2 6 -13 5 -11 0 -14 -3 -6 -6z"/>
<path d="M1315 2220 c26 -11 35 -12 35 -2 0 4 -12 8 -27 9 -24 1 -25 1 -8 -7z"/>
<path d="M1405 2220 c-3 -6 1 -7 9 -4 18 7 21 14 7 14 -6 0 -13 -4 -16 -10z"/>
<path d="M1276 2207 c3 -10 9 -15 12 -12 3 3 0 11 -7 18 -10 9 -11 8 -5 -6z"/>
<path d="M1513 2205 c0 -8 4 -12 9 -9 5 3 6 10 3 15 -9 13 -12 11 -12 -6z"/>
<path d="M1083 2194 c-3 -8 -1 -20 5 -26 8 -8 9 -4 5 12 -5 17 -3 21 7 15 9
-5 11 -4 6 3 -10 16 -15 15 -23 -4z"/>
<path d="M1150 2201 c0 -6 4 -13 10 -16 6 -3 7 1 4 9 -7 18 -14 21 -14 7z"/>
<path d="M1430 2199 c0 -5 5 -7 10 -4 6 3 10 8 10 11 0 2 -4 4 -10 4 -5 0 -10
-5 -10 -11z"/>
<path d="M1547 2199 c7 -7 15 -10 18 -7 3 3 -2 9 -12 12 -14 6 -15 5 -6 -5z"/>
<path d="M793 2175 c0 -8 4 -12 9 -9 5 3 6 10 3 15 -9 13 -12 11 -12 -6z"/>
<path d="M974 2173 c2 -9 8 -19 14 -21 7 -2 10 -8 7 -13 -4 -5 2 -6 11 -2 11
4 13 8 6 11 -7 2 -10 8 -7 13 4 5 -1 6 -10 3 -11 -5 -14 -2 -9 10 3 9 2 16 -4
16 -6 0 -9 -8 -8 -17z"/>
<path d="M1025 2179 c-4 -6 -4 -13 -1 -16 3 -4 6 -1 6 6 0 7 5 9 10 6 6 -3 10
-1 10 4 0 14 -17 14 -25 0z"/>
<path d="M1530 2176 c0 -8 4 -17 9 -20 5 -4 7 3 4 14 -6 23 -13 26 -13 6z"/>
<path d="M876 2161 c-3 -5 2 -15 12 -22 15 -12 16 -12 5 2 -7 9 -10 19 -6 22
3 4 4 7 0 7 -3 0 -8 -4 -11 -9z"/>
<path d="M911 2154 c5 -6 7 -20 3 -30 -5 -18 -5 -18 6 -1 6 9 9 21 5 26 -3 5
1 11 7 14 7 3 3 4 -9 4 -16 -1 -19 -5 -12 -13z"/>
<path d="M1632 2165 c4 -4 3 -14 -4 -22 -6 -7 -9 -15 -7 -18 3 -2 10 4 17 15
9 15 9 21 -1 26 -6 4 -9 4 -5 -1z"/>
<path d="M1570 2140 c0 -5 5 -10 10 -10 6 0 10 5 10 10 0 6 -4 10 -10 10 -5 0
-10 -4 -10 -10z"/>
<path d="M1656 2133 c-6 -14 -5 -15 5 -6 7 7 10 15 7 18 -3 3 -9 -2 -12 -12z"/>
<path d="M1690 2139 c0 -5 5 -7 10 -4 6 3 10 8 10 11 0 2 -4 4 -10 4 -5 0 -10
-5 -10 -11z"/>
<path d="M872 2085 c-7 -14 -22 -29 -35 -34 -13 -5 -24 -16 -24 -25 0 -8 4
-13 9 -10 5 3 6 9 3 14 -3 4 3 10 13 12 20 6 70 68 54 68 -5 0 -14 -11 -20
-25z"/>
<path d="M831 2093 c-1 -17 16 -25 25 -12 4 7 3 9 -4 5 -5 -3 -13 0 -15 6 -4
9 -6 10 -6 1z"/>
<path d="M1635 2080 c-3 -5 -1 -10 4 -10 6 0 11 5 11 10 0 6 -2 10 -4 10 -3 0
-8 -4 -11 -10z"/>
<path d="M1770 2079 c0 -5 5 -7 10 -4 6 3 10 8 10 11 0 2 -4 4 -10 4 -5 0 -10
-5 -10 -11z"/>
<path d="M755 2049 c-4 -6 -5 -12 -2 -15 2 -3 7 2 10 11 7 17 1 20 -8 4z"/>
<path d="M673 2015 c0 -8 4 -12 9 -9 5 3 6 10 3 15 -9 13 -12 11 -12 -6z"/>
<path d="M1793 2013 c0 -11 7 -20 14 -20 10 0 10 4 1 16 -7 9 -13 18 -15 20
-1 2 -1 -5 0 -16z"/>
<path d="M1766 1983 c-6 -14 -5 -15 5 -6 7 7 10 15 7 18 -3 3 -9 -2 -12 -12z"/>
<path d="M676 1981 c-3 -5 1 -14 8 -20 10 -9 16 -9 21 -1 4 6 1 9 -7 8 -7 -2
-12 3 -10 10 2 14 -4 16 -12 3z"/>
<path d="M730 1980 c0 -5 5 -10 10 -10 6 0 10 5 10 10 0 6 -4 10 -10 10 -5 0
-10 -4 -10 -10z"/>
<path d="M1830 1965 c0 -7 30 -13 34 -7 3 4 -4 9 -15 9 -10 1 -19 0 -19 -2z"/>
<path d="M1801 1934 c0 -11 3 -14 6 -6 3 7 2 16 -1 19 -3 4 -6 -2 -5 -13z"/>
<path d="M615 1920 c-3 -5 -1 -10 4 -10 6 0 11 5 11 10 0 6 -2 10 -4 10 -3 0
-8 -4 -11 -10z"/>
<path d="M1838 1923 c7 -3 16 -2 19 1 4 3 -2 6 -13 5 -11 0 -14 -3 -6 -6z"/>
<path d="M1879 1928 c-6 -22 -6 -58 0 -58 4 0 7 14 7 30 0 24 -3 39 -7 28z"/>
<path d="M658 1898 c4 -16 2 -19 -8 -13 -9 5 -11 4 -6 -4 4 -6 12 -9 17 -6 12
8 12 32 0 39 -5 4 -7 -4 -3 -16z"/>
<path d="M630 1865 c0 -5 5 -17 10 -25 5 -8 10 -10 10 -5 0 6 -5 17 -10 25 -5
8 -10 11 -10 5z"/>
<path d="M1867 1826 c-17 -13 -17 -14 0 -20 10 -4 14 -4 10 0 -4 4 -2 13 4 21
14 17 9 16 -14 -1z"/>
<path d="M1906 1818 c3 -5 9 -7 12 -4 3 3 12 0 21 -6 13 -10 14 -10 4 2 -15
16 -46 23 -37 8z"/>
<path d="M615 1811 c-3 -5 0 -13 6 -17 7 -4 9 -3 5 4 -3 5 0 13 6 15 9 4 10 6
1 6 -6 1 -14 -3 -18 -8z"/>
<path d="M1897 1799 c7 -7 15 -10 18 -7 3 3 -2 9 -12 12 -14 6 -15 5 -6 -5z"/>
<path d="M566 1785 c-11 -8 -15 -15 -9 -15 6 0 16 7 23 15 16 19 11 19 -14 0z"/>
<path d="M1875 1780 c-3 -6 0 -13 9 -16 8 -3 12 -13 9 -22 -4 -15 -3 -15 6 -2
8 11 7 18 -4 26 -8 6 -12 14 -8 17 3 4 4 7 0 7 -3 0 -9 -5 -12 -10z"/>
<path d="M1922 1781 c-11 -6 -10 -10 0 -19 11 -8 14 -7 14 9 0 10 0 19 -1 19
0 0 -6 -4 -13 -9z"/>
<path d="M586 1762 c-3 -4 4 -9 15 -9 23 -2 25 3 4 10 -8 4 -16 3 -19 -1z"/>
<path d="M1953 1745 c0 -8 4 -12 9 -9 5 3 6 10 3 15 -9 13 -12 11 -12 -6z"/>
<path d="M575 1729 c-4 -5 2 -6 11 -2 12 4 15 3 10 -5 -10 -16 -1 -15 12 1 8
10 6 13 -8 14 -11 1 -22 -2 -25 -8z"/>
<path d="M1910 1710 c-13 -8 -12 -10 3 -10 9 0 17 5 17 10 0 12 -1 12 -20 0z"/>
<path d="M580 1691 c0 -7 -5 -9 -12 -5 -7 5 -8 3 -3 -5 5 -9 10 -10 18 -2 6 6
8 14 4 18 -4 3 -7 1 -7 -6z"/>
<path d="M496 1682 c-3 -5 1 -9 9 -9 8 0 12 4 9 9 -3 4 -7 8 -9 8 -2 0 -6 -4
-9 -8z"/>
<path d="M1974 1660 c0 -13 4 -16 10 -10 7 7 7 13 0 20 -6 6 -10 3 -10 -10z"/>
<path d="M550 1661 c0 -5 5 -13 10 -16 6 -3 10 -2 10 4 0 5 -4 13 -10 16 -5 3
-10 2 -10 -4z"/>
<path d="M590 1655 c0 -8 2 -15 4 -15 2 0 6 7 10 15 3 8 1 15 -4 15 -6 0 -10
-7 -10 -15z"/>
<path d="M1937 1639 c7 -7 15 -10 18 -7 3 3 -2 9 -12 12 -14 6 -15 5 -6 -5z"/>
<path d="M536 1627 c3 -10 9 -15 12 -12 3 3 0 11 -7 18 -10 9 -11 8 -5 -6z"/>
<path d="M565 1620 c-3 -6 1 -7 9 -4 18 7 21 14 7 14 -6 0 -13 -4 -16 -10z"/>
<path d="M1917 1616 c-4 -10 -3 -15 2 -12 5 3 11 -1 14 -8 3 -8 1 -17 -6 -20
-9 -3 -9 -5 0 -5 19 -1 22 12 9 38 -11 20 -14 21 -19 7z"/>
<path d="M517 1607 c-3 -8 1 -14 8 -14 7 0 11 6 8 14 -3 7 -6 13 -8 13 -2 0
-5 -6 -8 -13z"/>
<path d="M1986 1597 c3 -10 9 -15 12 -12 3 3 0 11 -7 18 -10 9 -11 8 -5 -6z"/>
<path d="M1971 1574 c0 -11 3 -14 6 -6 3 7 2 16 -1 19 -3 4 -6 -2 -5 -13z"/>
<path d="M1950 1561 c0 -6 4 -13 10 -16 6 -3 7 1 4 9 -7 18 -14 21 -14 7z"/>
<path d="M550 1545 c0 -5 5 -17 10 -25 5 -8 10 -10 10 -5 0 6 -5 17 -10 25 -5
8 -10 11 -10 5z"/>
<path d="M1928 1542 c8 -5 13 -13 13 -18 -1 -5 8 -10 19 -10 11 -1 17 2 14 7
-2 4 -11 6 -20 2 -9 -3 -14 0 -12 7 2 7 -4 15 -12 17 -12 4 -12 3 -2 -5z"/>
<path d="M532 1519 c2 -7 -2 -13 -9 -14 -20 0 -23 -11 -3 -12 20 -2 35 23 19
32 -5 4 -8 1 -7 -6z"/>
<path d="M1973 1472 c-7 -4 -9 -13 -4 -21 6 -9 10 -7 14 8 3 12 4 21 4 21 -1
0 -7 -4 -14 -8z"/>
<path d="M555 1460 c3 -5 11 -10 16 -10 6 0 7 5 4 10 -3 6 -11 10 -16 10 -6 0
-7 -4 -4 -10z"/>
<path d="M514 1429 c-3 -6 2 -18 12 -27 17 -16 17 -16 5 0 -7 9 -10 22 -6 28
3 5 4 10 1 10 -3 0 -8 -5 -12 -11z"/>
<path d="M568 1422 c8 -5 13 -13 12 -18 0 -5 7 -10 17 -11 17 -3 17 -2 0 5
-10 4 -18 12 -17 17 1 5 -4 11 -12 13 -11 3 -11 2 0 -6z"/>
<path d="M1956 1418 c3 -5 10 -6 15 -3 13 9 11 12 -6 12 -8 0 -12 -4 -9 -9z"/>
<path d="M2030 1426 c0 -2 7 -7 16 -10 8 -3 12 -2 9 4 -6 10 -25 14 -25 6z"/>
<path d="M1915 1410 c-3 -5 -1 -10 4 -10 6 0 11 5 11 10 0 6 -2 10 -4 10 -3 0
-8 -4 -11 -10z"/>
<path d="M1986 1402 c-3 -5 1 -9 9 -9 8 0 12 4 9 9 -3 4 -7 8 -9 8 -2 0 -6 -4
-9 -8z"/>
<path d="M554 1380 c0 -13 4 -16 10 -10 7 7 7 13 0 20 -6 6 -10 3 -10 -10z"/>
<path d="M1930 1386 c0 -2 7 -7 16 -10 8 -3 12 -2 9 4 -6 10 -25 14 -25 6z"/>
<path d="M1910 1370 c8 -5 20 -10 25 -10 6 0 3 5 -5 10 -8 5 -19 10 -25 10 -5
0 -3 -5 5 -10z"/>
<path d="M496 1347 c3 -10 9 -15 12 -12 3 3 0 11 -7 18 -10 9 -11 8 -5 -6z"/>
<path d="M1974 1340 c0 -13 4 -16 10 -10 7 7 7 13 0 20 -6 6 -10 3 -10 -10z"/>
<path d="M584 1338 c10 -6 22 -6 26 -2 5 5 -3 10 -18 11 -22 1 -24 0 -8 -9z"/>
<path d="M1935 1340 c3 -5 8 -10 11 -10 2 0 4 5 4 10 0 6 -5 10 -11 10 -5 0
-7 -4 -4 -10z"/>
<path d="M1910 1330 c0 -5 5 -10 11 -10 5 0 7 5 4 10 -3 6 -8 10 -11 10 -2 0
-4 -4 -4 -10z"/>
<path d="M580 1305 c0 -8 4 -15 10 -15 5 0 7 7 4 15 -4 8 -8 15 -10 15 -2 0
-4 -7 -4 -15z"/>
<path d="M1932 1311 c-11 -7 -11 -9 0 -14 9 -3 15 1 15 9 0 8 -1 14 -1 14 -1
0 -7 -4 -14 -9z"/>
<path d="M1890 1300 c0 -5 5 -10 10 -10 6 0 10 5 10 10 0 6 -4 10 -10 10 -5 0
-10 -4 -10 -10z"/>
<path d="M556 1282 c-2 -4 -1 -14 4 -22 7 -11 9 -9 7 8 -1 24 -3 26 -11 14z"/>
<path d="M1914 1279 c-3 -6 -2 -15 4 -21 6 -6 12 -6 17 3 6 8 4 10 -5 4 -10
-6 -12 -4 -7 8 7 19 2 23 -9 6z"/>
<path d="M1970 1280 c0 -5 5 -10 11 -10 5 0 7 5 4 10 -3 6 -8 10 -11 10 -2 0
-4 -4 -4 -10z"/>
<path d="M515 1269 c-4 -6 -5 -12 -2 -15 2 -3 7 2 10 11 7 17 1 20 -8 4z"/>
<path d="M1876 1265 c4 -8 8 -15 10 -15 2 0 4 7 4 15 0 8 -4 15 -10 15 -5 0
-7 -7 -4 -15z"/>
<path d="M615 1250 c-4 -6 -10 -8 -15 -5 -5 3 -12 0 -16 -6 -5 -8 -3 -9 6 -4
10 6 12 3 8 -13 -4 -15 -2 -19 8 -15 8 3 11 9 8 14 -3 6 0 16 6 24 7 8 10 15
7 15 -3 0 -9 -5 -12 -10z"/>
<path d="M1928 1228 c-10 -10 -14 -18 -9 -18 10 0 36 29 30 34 -2 1 -12 -6
-21 -16z"/>
<path d="M1966 1242 c-3 -5 1 -9 9 -9 8 0 12 4 9 9 -3 4 -7 8 -9 8 -2 0 -6 -4
-9 -8z"/>
<path d="M630 1199 c0 -5 5 -7 10 -4 6 3 10 2 10 -4 0 -5 -4 -13 -10 -16 -5
-3 -10 -12 -10 -18 0 -7 5 -5 10 5 6 10 18 14 30 11 11 -3 20 0 20 6 0 5 -6 8
-14 5 -7 -3 -16 2 -19 10 -7 18 -27 22 -27 5z"/>
<path d="M1894 1202 c3 -5 0 -13 -6 -15 -9 -4 -10 -6 -1 -6 17 -1 25 16 12 25
-7 4 -9 3 -5 -4z"/>
<path d="M1950 1200 c0 -5 5 -10 11 -10 5 0 7 5 4 10 -3 6 -8 10 -11 10 -2 0
-4 -4 -4 -10z"/>
<path d="M605 1180 c3 -5 8 -10 11 -10 2 0 4 5 4 10 0 6 -5 10 -11 10 -5 0 -7
-4 -4 -10z"/>
<path d="M651 1143 c-1 -12 4 -25 9 -28 12 -7 12 2 0 30 -8 19 -9 19 -9 -2z"/>
<path d="M1871 1143 c-1 -27 10 -35 29 -21 12 8 12 9 -2 4 -12 -3 -18 2 -21
17 l-4 22 -2 -22z"/>
<path d="M576 1138 c3 -5 10 -6 15 -3 13 9 11 12 -6 12 -8 0 -12 -4 -9 -9z"/>
<path d="M606 1102 c-3 -5 1 -9 9 -9 8 0 12 4 9 9 -3 4 -7 8 -9 8 -2 0 -6 -4
-9 -8z"/>
<path d="M1850 1100 c0 -5 5 -10 10 -10 6 0 10 5 10 10 0 6 -4 10 -10 10 -5 0
-10 -4 -10 -10z"/>
<path d="M575 1081 c-3 -5 -2 -12 3 -15 5 -3 9 1 9 9 0 17 -3 19 -12 6z"/>
<path d="M609 1063 c-13 -16 -12 -17 4 -4 9 7 17 15 17 17 0 8 -8 3 -21 -13z"/>
<path d="M1766 1052 c16 -14 28 -29 26 -34 -1 -4 7 -3 18 4 11 7 20 17 20 22
0 4 -6 3 -14 -3 -10 -9 -17 -6 -29 12 -8 13 -23 24 -33 24 -13 0 -11 -6 12
-25z"/>
<path d="M1866 1063 c-6 -14 -5 -15 5 -6 7 7 10 15 7 18 -3 3 -9 -2 -12 -12z"/>
<path d="M634 1045 c1 -8 8 -21 16 -28 12 -10 12 -9 2 4 -6 9 -9 18 -6 21 3 3
1 9 -4 12 -6 3 -9 -1 -8 -9z"/>
<path d="M1890 1039 c0 -5 5 -7 10 -4 6 3 10 8 10 11 0 2 -4 4 -10 4 -5 0 -10
-5 -10 -11z"/>
<path d="M1850 1018 c0 -4 4 -8 9 -8 6 0 12 4 15 8 3 5 -1 9 -9 9 -8 0 -15 -4
-15 -9z"/>
<path d="M1830 1011 c0 -7 -5 -9 -12 -5 -7 5 -8 3 -3 -5 5 -9 10 -10 18 -2 6
6 8 14 4 18 -4 3 -7 1 -7 -6z"/>
<path d="M677 993 c6 -15 4 -16 -8 -6 -13 10 -16 10 -16 -1 0 -16 29 -15 34 1
2 6 -1 14 -6 18 -7 4 -8 -1 -4 -12z"/>
<path d="M1886 998 c3 -5 10 -6 15 -3 13 9 11 12 -6 12 -8 0 -12 -4 -9 -9z"/>
<path d="M1853 985 c0 -8 4 -15 9 -15 4 0 8 4 8 9 0 6 -4 12 -8 15 -5 3 -9 -1
-9 -9z"/>
<path d="M679 933 c-13 -16 -12 -17 4 -4 9 7 17 15 17 17 0 8 -8 3 -21 -13z"/>
<path d="M1074 927 c-3 -9 -10 -15 -14 -12 -4 2 -15 -4 -25 -15 -10 -11 -14
-20 -10 -20 5 0 0 -7 -11 -15 -10 -8 -14 -15 -9 -14 6 1 21 1 34 0 24 -1 24
-1 5 -23 -10 -13 -15 -20 -10 -16 5 4 15 0 23 -10 13 -15 13 -15 4 4 -8 17 -7
25 4 34 12 10 16 9 21 -4 5 -13 10 -14 20 -5 7 6 19 8 26 4 7 -4 5 0 -6 9 -10
8 -20 29 -21 46 -3 39 -21 61 -31 37z m21 -35 c-1 -9 2 -25 7 -36 8 -14 7 -17
-4 -13 -7 2 -12 10 -10 17 2 10 -1 10 -14 -1 -14 -11 -16 -11 -10 0 7 10 3 12
-15 6 -17 -4 -20 -3 -10 3 7 6 9 11 3 13 -6 2 -3 10 6 19 14 13 15 13 10 -1
-4 -10 1 -15 15 -17 16 -1 18 1 8 7 -7 5 -10 14 -7 20 10 16 25 4 21 -17z"/>
<path d="M1420 900 c-8 -15 -5 -23 17 -40 27 -21 27 -21 5 -27 -12 -3 -22 -9
-22 -15 0 -11 28 4 57 31 14 14 23 16 26 8 4 -11 -16 -38 -25 -34 -2 1 0 -2 5
-8 5 -6 12 -4 18 8 6 9 15 17 20 17 6 0 7 -5 3 -12 -4 -7 -3 -8 5 -4 8 6 5 15
-13 33 -14 14 -23 30 -19 37 4 6 -1 5 -10 -3 -9 -7 -14 -17 -11 -22 3 -5 -2
-6 -11 -3 -12 5 -13 9 -4 20 7 8 9 18 5 21 -14 14 -37 11 -46 -7z m30 -1 c0 8
3 11 6 8 4 -4 2 -13 -4 -20 -7 -8 -8 -18 -4 -23 4 -4 -1 -3 -10 5 -9 7 -14 19
-11 28 5 12 7 12 14 1 7 -11 9 -10 9 1z"/>
<path d="M1810 871 c0 -6 4 -13 10 -16 6 -3 7 1 4 9 -7 18 -14 21 -14 7z"/>
<path d="M972 848 c-7 -10 -8 -18 0 -28 8 -12 9 -12 4 3 -3 9 -2 17 3 17 16 0
20 -13 10 -34 -10 -20 -10 -20 5 -2 9 11 22 24 28 29 9 6 8 7 -4 3 -10 -3 -21
1 -26 10 -7 13 -10 13 -20 2z"/>
<path d="M1110 809 c0 -5 -6 -7 -12 -3 -7 4 -10 3 -5 -1 4 -5 18 -10 30 -11
12 -2 16 0 9 2 -6 3 -10 10 -6 15 3 5 0 9 -5 9 -6 0 -11 -5 -11 -11z"/>
<path d="M1400 811 c0 -6 4 -13 10 -16 6 -3 7 1 4 9 -7 18 -14 21 -14 7z"/>
<path d="M1013 803 c4 -6 2 -13 -4 -15 -7 -2 -6 -8 3 -16 12 -9 14 -8 13 8 -1
11 -5 23 -10 27 -4 5 -5 3 -2 -4z"/>
<path d="M1379 808 c-3 -6 -6 -48 -4 -48 1 0 9 8 16 17 12 14 12 16 0 8 -11
-6 -13 -4 -8 8 5 13 1 25 -4 15z"/>
<path d="M1510 800 c0 -5 5 -10 10 -10 6 0 10 5 10 10 0 6 -4 10 -10 10 -5 0
-10 -4 -10 -10z"/>
<path d="M910 781 c0 -6 4 -13 10 -16 6 -3 7 1 4 9 -7 18 -14 21 -14 7z"/>
<path d="M955 780 c3 -5 8 -10 11 -10 2 0 4 5 4 10 0 6 -5 10 -11 10 -5 0 -7
-4 -4 -10z"/>
<path d="M1070 759 c0 -5 5 -7 10 -4 6 3 10 8 10 11 0 2 -4 4 -10 4 -5 0 -10
-5 -10 -11z"/>
<path d="M1260 766 c0 -2 8 -10 18 -17 15 -13 16 -12 3 4 -13 16 -21 21 -21
13z"/>
<path d="M1466 758 c3 -4 9 -8 15 -8 5 0 9 4 9 8 0 5 -7 9 -15 9 -8 0 -12 -4
-9 -9z"/>
<path d="M1550 760 c0 -5 5 -10 11 -10 5 0 7 5 4 10 -3 6 -8 10 -11 10 -2 0
-4 -4 -4 -10z"/>
<path d="M1587 759 c7 -7 15 -10 18 -7 3 3 -2 9 -12 12 -14 6 -15 5 -6 -5z"/>
<path d="M875 751 c-3 -5 -2 -12 3 -15 5 -3 9 1 9 9 0 17 -3 19 -12 6z"/>
<path d="M1135 740 c3 -5 8 -10 11 -10 2 0 4 5 4 10 0 6 -5 10 -11 10 -5 0 -7
-4 -4 -10z"/>
<path d="M1353 715 c0 -8 4 -12 9 -9 5 3 6 10 3 15 -9 13 -12 11 -12 -6z"/>
<path d="M660 570 c-12 -12 -15 -40 -14 -125 0 -109 0 -110 25 -113 l24 -3 -2
98 c-2 115 3 122 74 114 44 -6 48 -8 51 -35 5 -37 -9 -50 -52 -48 -56 2 -55
-24 2 -81 39 -39 54 -48 77 -45 l29 3 -45 42 c-42 41 -43 43 -19 43 39 0 53
15 60 62 7 51 -5 85 -34 94 -43 14 -160 10 -176 -6z"/>
<path d="M938 580 c-22 -6 -23 -9 -23 -125 l0 -120 94 -3 c67 -2 97 1 102 10
14 22 -1 28 -77 28 l-75 0 3 33 3 32 68 1 c73 1 83 5 74 29 -5 11 -23 15 -77
15 l-70 0 0 33 0 32 76 -3 c74 -4 76 -3 72 19 -3 22 -8 23 -75 24 -39 0 -82
-2 -95 -5z"/>
<path d="M1230 575 c-11 -13 -100 -222 -100 -235 0 -5 11 -10 25 -10 14 0 25
6 25 13 0 27 26 48 60 49 75 1 81 -1 91 -32 9 -24 17 -30 41 -30 16 0 27 3 25
8 -9 15 -47 101 -67 153 -12 30 -28 64 -36 76 -14 22 -48 27 -64 8z m67 -127
c5 -15 -1 -18 -41 -18 -41 0 -46 2 -37 18 5 9 16 35 26 57 l16 40 15 -40 c9
-22 18 -48 21 -57z"/>
<path d="M1431 578 c-10 -3 -20 -12 -23 -20 -7 -21 -2 -204 6 -217 4 -7 38
-11 87 -11 76 0 82 2 110 29 25 26 29 37 29 86 0 76 -22 122 -63 131 -42 10
-123 11 -146 2z m144 -61 c22 -32 19 -103 -6 -128 -16 -16 -30 -19 -67 -17
l-46 3 -1 78 c-1 88 3 95 65 89 27 -3 45 -11 55 -25z"/>
<path d="M1636 582 c-3 -2 18 -41 46 -86 37 -58 52 -92 54 -121 1 -35 5 -40
27 -43 24 -3 26 -1 23 33 -2 30 8 53 51 122 30 47 51 88 48 91 -20 21 -45 4
-81 -55 -21 -35 -41 -63 -45 -63 -3 0 -11 10 -17 23 -36 70 -59 101 -80 102
-12 1 -24 0 -26 -3z"/>
<path d="M668 242 c-21 -4 -20 2 -22 -122 -2 -110 0 -120 25 -120 17 0 19 9
19 99 0 86 2 100 18 104 14 4 68 3 95 -2 11 -2 8 -71 -3 -72 -5 -1 -23 -2 -39
-3 -56 -2 -56 -19 -2 -75 41 -42 57 -52 78 -49 l27 3 -37 35 c-41 39 -46 50
-19 50 46 0 71 84 40 129 -15 21 -25 24 -90 25 -40 1 -81 0 -90 -2z"/>
<path d="M954 243 c-41 -7 -58 -40 -62 -113 -4 -66 -3 -71 26 -100 28 -27 36
-30 94 -30 36 1 70 6 80 14 56 42 58 171 4 215 -15 13 -102 21 -142 14z m121
-59 c19 -26 12 -115 -11 -131 -28 -20 -88 -16 -110 8 -27 30 -23 108 8 132 28
23 93 18 113 -9z"/>
<path d="M1185 237 c-12 -6 -15 -29 -15 -110 0 -56 4 -107 8 -114 12 -19 162
-16 184 4 20 18 25 82 7 100 -8 8 -8 17 1 33 12 23 5 76 -12 86 -16 10 -156
11 -173 1z m143 -56 c5 -31 -9 -39 -66 -36 -39 1 -47 5 -48 21 -1 32 13 40 63
39 42 -1 48 -4 51 -24z m-5 -80 c5 0 7 -13 5 -28 -3 -26 -7 -28 -48 -29 -61
-1 -69 3 -65 34 1 15 3 27 4 27 3 1 97 -3 104 -4z"/>
<path d="M1458 236 c-37 -19 -52 -59 -49 -139 1 -28 9 -46 30 -68 25 -25 37
-29 85 -29 71 0 99 11 117 48 26 54 13 158 -23 181 -28 17 -130 22 -160 7z
m127 -41 c28 -22 31 -109 4 -136 -26 -26 -90 -26 -113 0 -27 30 -24 110 4 133
27 22 78 23 105 3z"/>
<path d="M1668 232 c-15 -18 -6 -23 43 -25 l44 -3 2 -79 c1 -44 2 -90 2 -102
1 -18 6 -22 24 -19 21 3 22 7 22 102 l0 99 30 1 c59 2 65 4 65 19 0 17 3 16
-128 18 -65 2 -97 -2 -104 -11z"/>
</g>
</svg>
